%YAML 1.1
%TAG !u! tag:unity3d.com,2011:
--- !u!1 &9202540189842400851
GameObject:
  m_ObjectHideFlags: 0
  m_CorrespondingSourceObject: {fileID: 0}
  m_PrefabInstance: {fileID: 0}
  m_PrefabAsset: {fileID: 0}
  serializedVersion: 6
  m_Component:
  - component: {fileID: 8886548656320611919}
  - component: {fileID: 5998489069659255629}
  m_Layer: 0
  m_Name: Rewired Input Manager
  m_TagString: Untagged
  m_Icon: {fileID: 0}
  m_NavMeshLayer: 0
  m_StaticEditorFlags: 0
  m_IsActive: 1
--- !u!4 &8886548656320611919
Transform:
  m_ObjectHideFlags: 0
  m_CorrespondingSourceObject: {fileID: 0}
  m_PrefabInstance: {fileID: 0}
  m_PrefabAsset: {fileID: 0}
  m_GameObject: {fileID: 9202540189842400851}
  m_LocalRotation: {x: 0, y: 0, z: 0, w: 1}
  m_LocalPosition: {x: 0, y: 0, z: 0}
  m_LocalScale: {x: 1, y: 1, z: 1}
  m_Children: []
  m_Father: {fileID: 0}
  m_RootOrder: 0
  m_LocalEulerAnglesHint: {x: 0, y: 0, z: 0}
--- !u!114 &5998489069659255629
MonoBehaviour:
  m_ObjectHideFlags: 0
  m_CorrespondingSourceObject: {fileID: 0}
  m_PrefabInstance: {fileID: 0}
  m_PrefabAsset: {fileID: 0}
  m_GameObject: {fileID: 9202540189842400851}
  m_Enabled: 1
  m_EditorHideFlags: 0
  m_Script: {fileID: 11500000, guid: 581b3e3c96df0ef42aef16b63b27b87f, type: 3}
  m_Name: 
  m_EditorClassIdentifier: 
  _dontDestroyOnLoad: 1
  _userData:
    configVars:
      updateLoop: 1
      alwaysUseUnityInput: 0
      windowsStandalonePrimaryInputSource: 0
      osx_primaryInputSource: 0
      linux_primaryInputSource: 0
      windowsUWP_primaryInputSource: 0
      xboxOne_primaryInputSource: 0
      ps4_primaryInputSource: 0
      webGL_primaryInputSource: 0
      stadia_primaryInputSource: 0
      useXInput: 1
      useNativeMouse: 1
      useEnhancedDeviceSupport: 1
      windowsStandalone_useSteamRawInputControllerWorkaround: 0
      osxStandalone_useEnhancedDeviceSupport: 1
      android_supportUnknownGamepads: 1
      ps4_assignJoysticksByPS4JoyId: 1
      useSteamControllerSupport: 1
      logToScreen: 0
      runInEditMode: 0
      allowInputInEditorSceneView: 0
      platformVars_windowsStandalone:
        disableKeyboard: 0
        ignoreInputWhenAppNotInFocus: 1
        useNativeKeyboard: 1
        joystickRefreshRate: 240
      platformVars_linuxStandalone:
        disableKeyboard: 0
        ignoreInputWhenAppNotInFocus: 1
      platformVars_osxStandalone:
        disableKeyboard: 0
        ignoreInputWhenAppNotInFocus: 1
      platformVars_windows8Store:
        disableKeyboard: 0
        ignoreInputWhenAppNotInFocus: 1
      platformVars_windowsUWP:
        disableKeyboard: 0
        ignoreInputWhenAppNotInFocus: 1
        useGamepadAPI: 1
        useHIDAPI: 1
      platformVars_iOS:
        disableKeyboard: 0
        ignoreInputWhenAppNotInFocus: 1
      platformVars_tvOS:
        disableKeyboard: 0
        ignoreInputWhenAppNotInFocus: 1
      platformVars_android:
        disableKeyboard: 0
        ignoreInputWhenAppNotInFocus: 1
      platformVars_ps3:
        disableKeyboard: 0
        ignoreInputWhenAppNotInFocus: 1
      platformVars_ps4:
        disableKeyboard: 0
        ignoreInputWhenAppNotInFocus: 1
      platformVars_psVita:
        disableKeyboard: 0
        ignoreInputWhenAppNotInFocus: 1
      platformVars_xbox360:
        disableKeyboard: 0
        ignoreInputWhenAppNotInFocus: 1
      platformVars_xboxOne:
        disableKeyboard: 0
        ignoreInputWhenAppNotInFocus: 1
      platformVars_wii:
        disableKeyboard: 0
        ignoreInputWhenAppNotInFocus: 1
      platformVars_wiiu:
        disableKeyboard: 0
        ignoreInputWhenAppNotInFocus: 1
      platformVars_switch:
        disableKeyboard: 0
        ignoreInputWhenAppNotInFocus: 1
      platformVars_webGL:
        disableKeyboard: 0
        ignoreInputWhenAppNotInFocus: 1
      platformVars_stadia:
        disableKeyboard: 0
        ignoreInputWhenAppNotInFocus: 1
      maxJoysticksPerPlayer: 1
      autoAssignJoysticks: 1
      assignJoysticksToPlayingPlayersOnly: 0
      distributeJoysticksEvenly: 1
      reassignJoystickToPreviousOwnerOnReconnect: 1
      defaultJoystickAxis2DDeadZoneType: 1
      defaultJoystickAxis2DSensitivityType: 0
      defaultAxisSensitivityType: 0
      force4WayHats: 0
      throttleCalibrationMode: 0
      activateActionButtonsOnNegativeValue: 0
      deferControllerConnectedEventsOnStart: 0
      logLevel: 7
      editorSettings:
        exportConsts_useParentClass: 0
        exportConsts_parentClassName: RewiredConsts
        exportConsts_useNamespace: 1
        exportConsts_namespace: RewiredConsts
        exportConsts_actions: 1
        exportConsts_actionsClassName: Action
        exportConsts_actionsIncludeActionCategory: 0
        exportConsts_actionsCreateClassesForActionCategories: 0
        exportConsts_mapCategories: 1
        exportConsts_mapCategoriesClassName: Category
        exportConsts_layouts: 1
        exportConsts_layoutsClassName: Layout
        exportConsts_players: 1
        exportConsts_playersClassName: Player
        exportConsts_inputBehaviors: 0
        exportConsts_inputBehaviorsClassName: InputBehavior
        exportConsts_customControllers: 1
        exportConsts_customControllersClassName: CustomController
        exportConsts_customControllersAxesClassName: Axis
        exportConsts_customControllersButtonsClassName: Button
        exportConsts_layoutManagerRuleSets: 1
        exportConsts_layoutManagerRuleSetsClassName: LayoutManagerRuleSet
        exportConsts_mapEnablerRuleSets: 1
        exportConsts_mapEnablerRuleSetsClassName: MapEnablerRuleSet
        exportConsts_allCapsConstantNames: 0
    players:
    - _id: 9999999
      _name: System
      _descriptiveName: System
      _startPlaying: 1
      _defaultJoystickMaps: []
      _defaultMouseMaps: []
      _defaultKeyboardMaps: []
      _defaultCustomControllerMaps: []
      _startingCustomControllers: []
      _assignMouseOnStart: 1
      _assignKeyboardOnStart: 1
      _excludeFromControllerAutoAssignment: 1
      _controllerMapLayoutManagerSettings:
        _enabled: 1
        _loadFromUserDataStore: 1
        _ruleSets: []
      _controllerMapEnablerSettings:
        _enabled: 1
        _ruleSets: []
    - _id: 1
      _name: Player0
      _descriptiveName: Player0
      _startPlaying: 1
      _defaultJoystickMaps: []
      _defaultMouseMaps: []
      _defaultKeyboardMaps:
      - _enabled: 1
        _categoryId: 0
        _layoutId: 0
      _defaultCustomControllerMaps: []
      _startingCustomControllers: []
      _assignMouseOnStart: 1
      _assignKeyboardOnStart: 1
      _excludeFromControllerAutoAssignment: 0
      _controllerMapLayoutManagerSettings:
        _enabled: 1
        _loadFromUserDataStore: 1
        _ruleSets: []
      _controllerMapEnablerSettings:
        _enabled: 1
        _ruleSets: []
    - _id: 2
      _name: Player1
      _descriptiveName: Player1
      _startPlaying: 1
      _defaultJoystickMaps: []
      _defaultMouseMaps: []
      _defaultKeyboardMaps:
      - _enabled: 1
        _categoryId: 1
        _layoutId: 0
      _defaultCustomControllerMaps: []
      _startingCustomControllers: []
      _assignMouseOnStart: 0
      _assignKeyboardOnStart: 1
      _excludeFromControllerAutoAssignment: 0
      _controllerMapLayoutManagerSettings:
        _enabled: 1
        _loadFromUserDataStore: 1
        _ruleSets: []
      _controllerMapEnablerSettings:
        _enabled: 1
        _ruleSets: []
    actions:
    - _id: 0
      _name: HorizontalMove
      _type: 1
      _descriptiveName: Move left or right
      _positiveDescriptiveName: 
      _negativeDescriptiveName: 
      _behaviorId: 0
      _userAssignable: 1
      _categoryId: 0
    - _id: 1
      _name: VerticalMove
      _type: 1
      _descriptiveName: Move up or down
      _positiveDescriptiveName: 
      _negativeDescriptiveName: 
      _behaviorId: 0
      _userAssignable: 1
      _categoryId: 0
    actionCategories:
    - _name: Default
      _descriptiveName: Default
      _tag: 
      _id: 0
      _userAssignable: 1
    actionCategoryMap:
      list:
      - categoryId: 0
        actionIds: 0000000001000000
    inputBehaviors:
    - _id: 0
      _name: Default
      _joystickAxisSensitivity: 1
      _digitalAxisSimulation: 1
      _digitalAxisSnap: 1
      _digitalAxisInstantReverse: 0
      _digitalAxisGravity: 3
      _digitalAxisSensitivity: 3
      _mouseXYAxisMode: 0
      _mouseOtherAxisMode: 0
      _mouseXYAxisSensitivity: 1
      _mouseXYAxisDeltaCalc: 0
      _mouseOtherAxisSensitivity: 1
      _customControllerAxisSensitivity: 1
      _buttonDoublePressSpeed: 0.3
      _buttonShortPressTime: 0.25
      _buttonShortPressExpiresIn: 0
      _buttonLongPressTime: 1
      _buttonLongPressExpiresIn: 0
      _buttonDeadZone: 0.5
      _buttonDownBuffer: 0
      _buttonRepeatRate: 30
      _buttonRepeatDelay: 0
    mapCategories:
    - _name: Default
      _descriptiveName: Default
      _tag: 
      _id: 0
      _userAssignable: 1
      _checkConflictsWithAllCategories: 1
      _checkConflictsCategoryIds: 
    - _name: Category0
      _descriptiveName: Category0
      _tag: 
      _id: 1
      _userAssignable: 1
      _checkConflictsWithAllCategories: 1
      _checkConflictsCategoryIds: 
    joystickLayouts:
    - _name: Default
      _descriptiveName: Default
      _id: 0
    keyboardLayouts:
    - _name: Default
      _descriptiveName: Default
      _id: 0
    mouseLayouts:
    - _name: Default
      _descriptiveName: Default
      _id: 0
    customControllerLayouts:
    - _name: Default
      _descriptiveName: Default
      _id: 0
    joystickMaps: []
    keyboardMaps:
    - id: 0
      categoryId: 0
      layoutId: 0
      name: 
      hardwareGuidString: 
      customControllerUid: 0
      actionElementMaps:
      - _actionCategoryId: 0
        _actionId: 1
        _elementType: 1
        _elementIdentifierId: -1
        _axisRange: 0
        _invert: 0
        _axisContribution: 0
        _keyboardKeyCode: 122
        _modifierKey1: 0
        _modifierKey2: 0
        _modifierKey3: 0
      - _actionCategoryId: 0
        _actionId: 1
        _elementType: 1
        _elementIdentifierId: -1
        _axisRange: 0
        _invert: 0
        _axisContribution: 1
        _keyboardKeyCode: 115
        _modifierKey1: 0
        _modifierKey2: 0
        _modifierKey3: 0
      - _actionCategoryId: 0
        _actionId: 0
        _elementType: 1
        _elementIdentifierId: -1
        _axisRange: 0
        _invert: 0
        _axisContribution: 0
        _keyboardKeyCode: 100
        _modifierKey1: 0
        _modifierKey2: 0
        _modifierKey3: 0
      - _actionCategoryId: 0
        _actionId: 0
        _elementType: 1
        _elementIdentifierId: -1
        _axisRange: 0
        _invert: 0
        _axisContribution: 1
        _keyboardKeyCode: 113
        _modifierKey1: 0
        _modifierKey2: 0
        _modifierKey3: 0
    - id: 1
      categoryId: 1
      layoutId: 0
      name: 
      hardwareGuidString: 
      customControllerUid: 0
      actionElementMaps:
      - _actionCategoryId: 0
        _actionId: 1
        _elementType: 1
        _elementIdentifierId: -1
        _axisRange: 0
        _invert: 0
        _axisContribution: 0
        _keyboardKeyCode: 273
        _modifierKey1: 0
        _modifierKey2: 0
        _modifierKey3: 0
      - _actionCategoryId: 0
        _actionId: 1
        _elementType: 1
        _elementIdentifierId: -1
        _axisRange: 0
        _invert: 0
        _axisContribution: 1
        _keyboardKeyCode: 274
        _modifierKey1: 0
        _modifierKey2: 0
        _modifierKey3: 0
      - _actionCategoryId: 0
        _actionId: 0
        _elementType: 1
        _elementIdentifierId: -1
        _axisRange: 0
        _invert: 0
        _axisContribution: 0
        _keyboardKeyCode: 275
        _modifierKey1: 0
        _modifierKey2: 0
        _modifierKey3: 0
      - _actionCategoryId: 0
        _actionId: 0
        _elementType: 1
        _elementIdentifierId: -1
        _axisRange: 0
        _invert: 0
        _axisContribution: 1
        _keyboardKeyCode: 276
        _modifierKey1: 0
        _modifierKey2: 0
        _modifierKey3: 0
    mouseMaps: []
    customControllerMaps: []
    customControllers: []
    controllerMapLayoutManagerRuleSets: []
    controllerMapEnablerRuleSets: []
    playerIdCounter: 3
    actionIdCounter: 3
    actionCategoryIdCounter: 1
    inputBehaviorIdCounter: 1
    mapCategoryIdCounter: 2
    joystickLayoutIdCounter: 1
    keyboardLayoutIdCounter: 1
    mouseLayoutIdCounter: 1
    customControllerLayoutIdCounter: 1
    joystickMapIdCounter: 0
    keyboardMapIdCounter: 2
    mouseMapIdCounter: 0
    customControllerMapIdCounter: 0
    customControllerIdCounter: 0
    controllerMapLayoutManagerSetIdCounter: 0
    controllerMapEnablerSetIdCounter: 0
  _controllerDataFiles: {fileID: 11400000, guid: d21d2b20df8369642b76aafbb2576ba7,
    type: 2}
